{
  "label": "Hello World",
  "css_assets": [],
  "external_js": [],
  "global": false,
  "host_template_types": ["PAGE"],
  "icon": "https://cdn2.hubspot.net/hubfs/6326501/boilerplate/Module%20Icons/info-circle-solid.svg",
  "js_assets": [],
  "other_assets": [],
  "smart_type": "NOT_SMART",
  "tags": [],
  "is_available_for_new_content": true
}
