[
  {
    "name" : "enabled",
    "label" : "Enabled",
    "sortable" : false,
    "required" : false,
    "locked" : false,
    "type" : "boolean",
    "default" : false
  },
  {
    "name" : "image",
    "label" : "Image",
    "required" : false,
    "locked" : false,
    "responsive" : true,
    "resizable" : true,
    "type" : "image",
    "default" : {
      "size_type" : "auto",
      "src" : "",
      "alt" : null
    }
  },
  {
    "name" : "rotation",
    "label" : "Rotation",
    "required" : false,
    "locked" : false,
    "display" : "slider",
    "min" : 0,
    "max" : 360,
    "step" : 1,
    "type" : "number",
    "default" : 0
  }
]
